…
<img src="physical_mapping_files/figure-markdown_github/unnamed-chunk-1-1.png" width="90%" />

``` r
play.df <- osm_to_df(key = "leisure", value = "playground", type = "point")
```

    ## Warning: `as_tibble.matrix()` requires a matrix with column names or a `.name_repair` argument. Using compatibility `.name_repair`.
    ## This warning is displayed once per session.

``` r
play.df
```

    ## # A tibble: 9,600 x 3
    ##    object_id longitude latitude
    ##    <fct>         <dbl>    <dbl>
    ##  1 1             -77.1     39.0
    ##  2 2             -77.1     39.0
    ##  3 3             -77.1     39.0
    ##  4 4             -77.1     38.8
    ##  5 5             -77.1     38.8
    ##  6 6             -77.1     38.8
    ##  7 7             -77.1     38.9
    ##  8 8             -77.1     38.9
    ##  9 9             -77.1     38.9
    ## 10 10            -77.1     38.9
    ## # … with 9,590 more rows
…
COMMENTS: No way to cross check playgrounds on GMAPS...

``` r
ff.map <- fairfax.gg()
ff.map
```

<img src="physical_mapping_files/figure-markdown_github/unnamed-chunk-2-1.png" width="90%" />

``` r
play.df <- osm_to_df(key = "leisure", value = "park", type = "polygon")
play.df
```

    ## # A tibble: 58,371 x 3
    ##    object_id longitude latitude
    ##    <fct>         <dbl>    <dbl>
    ##  1 1             -77.1     39.0
    ##  2 1             -77.1     39.0
    ##  3 1             -77.1     39.0
    ##  4 1             -77.1     39.0
    ##  5 1             -77.1     39.0
    ##  6 1             -77.1     39.0
    ##  7 1             -77.1     39.0
    ##  8 1             -77.1     39.0
    ##  9 1             -77.1     39.0
    ## 10 1             -77.1     39.0
    ## # … with 58,361 more rows
…
COMMENT; useful but accuracy questionable cross-check on fairfax. Perhaps it excludes the nature reserves? website:<https://data-fairfaxcountygis.opendata.arcgis.com/datasets/county-parks?geometry=-78.124%2C38.645%2C-76.197%2C39.019>

``` r
ff.map <- fairfax.gg()
ff.map
```

<img src="physical_mapping_files/figure-markdown_github/unnamed-chunk-3-1.png" width="90%" />

``` r
play.df <- osm_to_df(key = "leisure", value = "swimming_pool", type = "point")
play.df
```

    ## # A tibble: 12,512 x 3
    ##    object_id longitude latitude
    ##    <fct>         <dbl>    <dbl>
    ##  1 1             -77.1     38.9
    ##  2 2             -77.1     38.8
    ##  3 3             -77.1     38.8
    ##  4 4             -77.1     38.8
    ##  5 5             -77.1     38.8
    ##  6 6             -77.1     38.9
    ##  7 7             -77.1     38.9
    ##  8 8             -77.1     38.9
    ##  9 9             -77.1     38.9
    ## 10 10            -77.1     38.9
    ## # … with 12,502 more rows
…
<img src="physical_mapping_files/figure-markdown_github/unnamed-chunk-4-1.png" width="90%" />

``` r
play.df <- osm_to_df(key = "leisure", value = "fitness_centre", type = "point")
```

    ## Request failed [429]. Retrying in 1.9 seconds...

``` r
play.df
```

    ## # A tibble: 205 x 3
    ##    object_id longitude latitude
    ##    <fct>         <dbl>    <dbl>
    ##  1 1             -77.1     38.9
    ##  2 2             -77.1     38.9
    ##  3 3             -77.1     38.9
    ##  4 4             -77.1     38.9
    ##  5 5             -77.1     38.9
    ##  6 6             -77.1     38.9
    ##  7 7             -77.1     38.9
    ##  8 8             -77.1     38.9
    ##  9 9             -77.1     38.9
    ## 10 10            -77.1     38.9
    ## # … with 195 more rows
…
NOTE: we MIGHT want the next one ... your call.

``` r
ff.map <- fairfax.gg()
ff.map
```

<img src="physical_mapping_files/figure-markdown_github/unnamed-chunk-5-1.png" width="90%" />

``` r
play.df <- osm_to_df(key = "leisure", value = "sports_centre", type = "point")
play.df
```

    ## # A tibble: 1,614 x 3
    ##    object_id longitude latitude
    ##    <fct>         <dbl>    <dbl>
    ##  1 1             -77.2     38.9
    ##  2 2             -77.1     39.0
    ##  3 3             -77.0     38.9
    ##  4 4             -77.1     39.0
    ##  5 5             -77.1     38.9
    ##  6 6             -77.4     39.0
    ##  7 7             -77.3     38.8
    ##  8 8             -77.1     38.8
    ##  9 9             -77.3     38.8
    ## 10 10            -77.1     38.8
    ## # … with 1,604 more rows
…
